<?xml version="1.0" encoding="UTF-8"?>
<svg width="32px" height="32px" viewBox="0 0 32 32" version="1.1" xmlns="http://www.w3.org/2000/svg" xmlns:xlink="http://www.w3.org/1999/xlink" style="background: #FFFFFF;">
    <!-- Generator: Sketch 49.2 (51160) - http://www.bohemiancoding.com/sketch -->
    <title>Untitled 2</title>
    <desc>Created with Sketch.</desc>
    <defs></defs>
    <g id="Page-1" stroke="none" stroke-width="1" fill="none" fill-rule="evenodd">
        <rect id="Rectangle" fill="#2359C3" x="0" y="0" width="32" height="32"></rect>
        <path d="M23.388134,17.3643765 L23.2699716,17.4312115 L21.264487,18.56675 L17.2576676,20.8380454 L17.2576676,14.0285274 L17.3441599,13.9793841 L17.4289048,13.9300223 L23.3409565,10.5528928 L23.3861683,10.5234068 L23.388134,17.3643765 Z M15.3131207,12.7964495 L15.2679088,12.7689293 L11.3711705,10.499818 L15.2679088,8.29164442 L17.2576676,7.16396884 L17.3933032,7.08708683 L21.3354718,9.38393681 L17.2576676,11.6943285 L15.3131207,12.7964495 Z M23.388134,8.27591856 L19.3987878,5.95154832 L17.4090291,4.79242101 L17.2576676,4.87891327 L15.4037628,5.92795952 L15.2679088,6.00462311 L9.38141173,9.34047226 L7.37789282,10.4742635 L9.36568586,11.6353565 L13.3076361,13.9319881 L15.3384568,15.1068412 L15.3806109,28.207579 L17.2576676,27.1436805 L17.2576676,23.1228826 L23.2542458,19.7260957 L23.388134,19.6511794 L25.2597304,18.5905572 L25.3778928,18.5235039 L25.3778928,9.43504587 L23.388134,8.27591856 Z" id="Fill-2" fill="#FFFFFF"></path>
    </g>
</svg>